id;name;participants;date
1;mobile Fish;77969;2019-12-19T22:06:42
2;Table Computer;5808;2019-12-20T01:27:27
3;seamless Metal deposit;5641;2019-12-19T13:12:07
4;parsing red Chips;18340;2019-12-19T21:39:36
5;Home Loan Account;706;2019-12-20T02:06:46
6;intangible;61185;2019-12-20T02:52:58
7;Gorgeous Frozen Pants;23277;2019-12-20T01:32:02
8;bluetooth;19967;2019-12-20T03:18:02
9;Planner Canyon;85994;2019-12-19T21:53:55
10;Table Small Frozen Sausages Planner;80839;2019-12-20T03:13:46
